{
  "cordova-plugin-whitelist": {
    "source": {
      "type": "registry",
      "id": "cordova-plugin-whitelist@1"
    },
    "is_top_level": true,
    "variables": {}
  },
  "com.outsystems.audiorecorder": {
    "source": {
      "type": "registry",
      "id": "https://github.com/OutSystems/cordova-plugin-audiorecorder.git"
    },
    "is_top_level": true,
    "variables": {}
  },
  "cordova-plugin-media": {
    "source": {
      "type": "registry",
      "id": "cordova-plugin-media@^5.0.2"
    },
    "is_top_level": true,
    "variables": {}
  },
  "cordova-plugin-file": {
    "source": {
      "type": "registry",
      "id": "cordova-plugin-file@^6.0.1"
    },
    "is_top_level": true,
    "variables": {}
  },
  "cordova-plugin-media-capture": {
    "source": {
      "type": "registry",
      "id": "cordova-plugin-media-capture@3.0.2"
    },
    "is_top_level": true,
    "variables": {}
  },
  "cordova-plugin-splashscreen": {
    "source": {
      "type": "registry",
      "id": "cordova-plugin-splashscreen@5.0.2"
    },
    "is_top_level": true,
    "variables": {}
  }
}